{
    "/js/app.js": "/js/app.js",
    "/js/Home.js": "/js/Home.js",
    "/js/Customer.js": "/js/Customer.js",
    "/js/HR.js": "/js/HR.js",
    "/js/Inventory.js": "/js/Inventory.js",
    "/js/ActiveProjects.js": "/js/ActiveProjects.js",
    "/js/TimeLine.js": "/js/TimeLine.js",
    "/js/QuotationRequests.js": "/js/QuotationRequests.js",
    "/css/app.css": "/css/app.css"
}
